Added Component: Designator=C11(1206 - 1.6mm_high)
Add component. Clean all parameters for all variants
Add component (AddParameter): Name = "ACCEPT"; Value = "CROSS REFERENCE"; VariantName = "[No Variations]"
Add component (AddParameter): Name = "COMPONENTLINK1DESCRIPTION"; Value = "Selected Part_Datasheet 35624"; VariantName = "[No Variations]"
Add component (AddParameter): Name = "COMPONENTLINK1URL"; Value = "http://kravad.mt.lv/kravad/files/9wNbd8fHXBUNenic86w8K3TEnFNuiRwd"; VariantName = "[No Variations]"
Add component (AddParameter): Name = "COMPONENTLINK2DESCRIPTION"; Value = ""; VariantName = "[No Variations]"
Add component (AddParameter): Name = "COMPONENTLINK2URL"; Value = ""; VariantName = "[No Variations]"
Add component (AddParameter): Name = "COMPONENTLINK3DESCRIPTION"; Value = ""; VariantName = "[No Variations]"
Add component (AddParameter): Name = "COMPONENTLINK3URL"; Value = ""; VariantName = "[No Variations]"
Add component (AddParameter): Name = "COMPONENTLINK4DESCRIPTION"; Value = ""; VariantName = "[No Variations]"
Add component (AddParameter): Name = "COMPONENTLINK4URL"; Value = ""; VariantName = "[No Variations]"
Add component (AddParameter): Name = "COMPONENTLINK5DESCRIPTION"; Value = ""; VariantName = "[No Variations]"
Add component (AddParameter): Name = "COMPONENTLINK5URL"; Value = ""; VariantName = "[No Variations]"
Add component (AddParameter): Name = "DATE_FROM"; Value = "06.09.2018"; VariantName = "[No Variations]"
Add component (AddParameter): Name = "DATE_TILL"; Value = "01.01.2099"; VariantName = "[No Variations]"
Add component (AddParameter): Name = "DESC"; Value = "Capacitor, 22uF, 16V, +/-20%, X5R, RoHS C, 1206, 1.6mm_high"; VariantName = "[No Variations]"
Add component (AddParameter): Name = "FP"; Value = "1206"; VariantName = "[No Variations]"
Add component (AddParameter): Name = "HELPURL"; Value = "http://kravad.mt.lv/kravad/files/VjBu7CcLAJW8H3K3SyNPiHm83eYyJVMx"; VariantName = "[No Variations]"
Add component (AddParameter): Name = "MF"; Value = "Murata manufacturing Co."; VariantName = "[No Variations]"
Add component (AddParameter): Name = "NOTE"; Value = "2018-09-06 In stock 60K pcs (24k ordered)"; VariantName = "[No Variations]"
Add component (AddParameter): Name = "PART#"; Value = "GRM31CR61C226ME15L"; VariantName = "[No Variations]"
Add component (AddParameter): Name = "PID"; Value = "30067"; VariantName = "[No Variations]"
Add component (AddParameter): Name = "PLACE"; Value = ""; VariantName = "[No Variations]"
Add component (AddParameter): Name = "PRICE"; Value = "0,050771"; VariantName = "[No Variations]"
Add component (AddParameter): Name = "QTY_FROM"; Value = "40000"; VariantName = "[No Variations]"
Add component (AddParameter): Name = "QTY_PER_YEAR"; Value = ""; VariantName = "[No Variations]"
Add component (AddParameter): Name = "QTY_TILL"; Value = "100000"; VariantName = "[No Variations]"
Add component (AddParameter): Name = "SMD"; Value = "1"; VariantName = "[No Variations]"
Add component (AddParameter): Name = "Temp RANGE"; Value = ""; VariantName = "[No Variations]"
Add component (AddParameter): Name = "TOLERANCE"; Value = "20%"; VariantName = "[No Variations]"
Add component (AddParameter): Name = "TYPE"; Value = "X5R"; VariantName = "[No Variations]"
Add component (AddParameter): Name = "VALUE"; Value = "22uF"; VariantName = "[No Variations]"
Add component (AddParameter): Name = "VOLTAGE"; Value = "16V"; VariantName = "[No Variations]"
Add component (AddParameter): Name = "WB"; Value = "0"; VariantName = "[No Variations]"
Added Pin To Net: NetName=GND Pin=C11-1
Added Pin To Net: NetName=3V3 Pin=C11-2
Added Member To Class: ClassName=ESP32 Member=Component C11 a-Cap_22uF_16V
