Replace Part C? 10uF in C:\Users\Edgars\Desktop\Darbs_Elektronika\Nauris\UWB\charging_power.schdoc with 10uF from UVB_lib.SCHLIB
Replace Part C? 22pF in C:\Users\Edgars\Desktop\Darbs_Elektronika\Nauris\UWB\charging_power.schdoc with 22pF from UVB_lib.SCHLIB
Replace Part C? 4.7uF in C:\Users\Edgars\Desktop\Darbs_Elektronika\Nauris\UWB\charging_power.schdoc with 4.7uF from UVB_lib.SCHLIB
Replace Part C? 4.7uF in C:\Users\Edgars\Desktop\Darbs_Elektronika\Nauris\UWB\charging_power.schdoc with 4.7uF from UVB_lib.SCHLIB
Replace Part C? 4.7uF in C:\Users\Edgars\Desktop\Darbs_Elektronika\Nauris\UWB\charging_power.schdoc with 4.7uF from UVB_lib.SCHLIB
Replace Part D? ESD5Z12T1G in C:\Users\Edgars\Desktop\Darbs_Elektronika\Nauris\UWB\charging_power.schdoc with ESD5Z12T1G from UVB_lib.SCHLIB
Replace Part D? PMEG2005EB,115 in C:\Users\Edgars\Desktop\Darbs_Elektronika\Nauris\UWB\charging_power.schdoc with PMEG2005EB,115 from UVB_lib.SCHLIB
Replace Part L? 2.2uH in C:\Users\Edgars\Desktop\Darbs_Elektronika\Nauris\UWB\charging_power.schdoc with 2.2uH from UVB_lib.SCHLIB
Replace Part LED? 16-213/BHC-AN1P2/3T in C:\Users\Edgars\Desktop\Darbs_Elektronika\Nauris\UWB\charging_power.schdoc with 16-213/BHC-AN1P2/3T from UVB_lib.SCHLIB
Replace Part LED? TJ-S1005SW4TGLC2R-A5 in C:\Users\Edgars\Desktop\Darbs_Elektronika\Nauris\UWB\charging_power.schdoc with TJ-S1005SW4TGLC2R-A5 from UVB_lib.SCHLIB
Replace Part P? 2.54mm 1*2P in C:\Users\Edgars\Desktop\Darbs_Elektronika\Nauris\UWB\charging_power.schdoc with 2.54mm 1*2P from UVB_lib.SCHLIB
Replace Part Q? AO3407 in C:\Users\Edgars\Desktop\Darbs_Elektronika\Nauris\UWB\charging_power.schdoc with AO3407 from UVB_lib.SCHLIB
Replace Part R? 140 in C:\Users\Edgars\Desktop\Darbs_Elektronika\Nauris\UWB\charging_power.schdoc with 140 from UVB_lib.SCHLIB
Replace Part R? 200 in C:\Users\Edgars\Desktop\Darbs_Elektronika\Nauris\UWB\charging_power.schdoc with 200 from UVB_lib.SCHLIB
Replace Part R? 1.8K in C:\Users\Edgars\Desktop\Darbs_Elektronika\Nauris\UWB\charging_power.schdoc with 1.8K from UVB_lib.SCHLIB
Replace Part R? 69.8K in C:\Users\Edgars\Desktop\Darbs_Elektronika\Nauris\UWB\charging_power.schdoc with 69.8K from UVB_lib.SCHLIB
Replace Part R? 15K in C:\Users\Edgars\Desktop\Darbs_Elektronika\Nauris\UWB\charging_power.schdoc with 15K from UVB_lib.SCHLIB
Replace Part R? 10K in C:\Users\Edgars\Desktop\Darbs_Elektronika\Nauris\UWB\charging_power.schdoc with 10K from UVB_lib.SCHLIB
Replace Part R? 100K in C:\Users\Edgars\Desktop\Darbs_Elektronika\Nauris\UWB\charging_power.schdoc with 100K from UVB_lib.SCHLIB
Replace Part U? BQ24092DGQR in C:\Users\Edgars\Desktop\Darbs_Elektronika\Nauris\UWB\charging_power.schdoc with BQ24092DGQR from UVB_lib.SCHLIB
Replace Part U? RT8059GJ5 in C:\Users\Edgars\Desktop\Darbs_Elektronika\Nauris\UWB\charging_power.schdoc with RT8059GJ5 from UVB_lib.SCHLIB
Replace Part USB? USB-302S in C:\Users\Edgars\Desktop\Darbs_Elektronika\Nauris\UWB\charging_power.schdoc with USB-302S from UVB_lib.SCHLIB
