Replace Part C? a-Cap_1.0uF in C:\Users\Edgars\Desktop\Darbs_Elektronika\Nauris\UWB\ESP32.schdoc with a-Cap_1.0uF from Capacitors 0402.IntLib
Replace Part C? a-Cap_1.0uF in C:\Users\Edgars\Desktop\Darbs_Elektronika\Nauris\UWB\ESP32.schdoc with a-Cap_1.0uF from Capacitors 0402.IntLib
Replace Part C? a-Cap_1.0uF in C:\Users\Edgars\Desktop\Darbs_Elektronika\Nauris\UWB\ESP32.schdoc with a-Cap_1.0uF from Capacitors 0402.IntLib
Replace Part J? 2X2PIN-HEADER in C:\Users\Edgars\Desktop\Darbs_Elektronika\Nauris\UWB\ESP32.schdoc with 2X2PIN-HEADER from Connectors.IntLib
Replace Part LD? LED_0603_R in C:\Users\Edgars\Desktop\Darbs_Elektronika\Nauris\UWB\ESP32.schdoc with LED_0603_R from LED.IntLib
Replace Part LD? LED_0603_R in C:\Users\Edgars\Desktop\Darbs_Elektronika\Nauris\UWB\ESP32.schdoc with LED_0603_R from LED.IntLib
Replace Part LD? LED_0603_R in C:\Users\Edgars\Desktop\Darbs_Elektronika\Nauris\UWB\ESP32.schdoc with LED_0603_R from LED.IntLib
Replace Part R? R_0402_180 in C:\Users\Edgars\Desktop\Darbs_Elektronika\Nauris\UWB\ESP32.schdoc with R_0402_180 from Resistors 0402.IntLib
Replace Part R? R_0402_180 in C:\Users\Edgars\Desktop\Darbs_Elektronika\Nauris\UWB\ESP32.schdoc with R_0402_180 from Resistors 0402.IntLib
Replace Part R? R_0402_180 in C:\Users\Edgars\Desktop\Darbs_Elektronika\Nauris\UWB\ESP32.schdoc with R_0402_180 from Resistors 0402.IntLib
Replace Part R? R_0402_100000 in C:\Users\Edgars\Desktop\Darbs_Elektronika\Nauris\UWB\ESP32.schdoc with R_0402_100000 from Resistors 0402.IntLib
Replace Part R? R_0402_100000 in C:\Users\Edgars\Desktop\Darbs_Elektronika\Nauris\UWB\ESP32.schdoc with R_0402_100000 from Resistors 0402.IntLib
Replace Part S? DW-TS-S05580B-02TR-01 in C:\Users\Edgars\Desktop\Darbs_Elektronika\Nauris\UWB\ESP32.schdoc with DW-TS-S05580B-02TR-01 from Switches.IntLib
Replace Part U? ESP32-WROOM-32D in C:\Users\Edgars\Desktop\Darbs_Elektronika\Nauris\UWB\ESP32.schdoc with ESP32-WROOM-32D from UVB_lib.SCHLIB
